{
	"info": {
		"name": "Nodejs-Express-Mariadb",
		"schema": "https://schema.getpostman.com/json/collection/v2.1.0/collection.json"
	},
	"item": [
		{
			"name": "API Development",
			"item": [
				{
					"name": "Check Connection",
					"request": {
						"method": "GET",
						"header": [],
						"url": {
							"raw": "localhost:8080",
							"host": [
								"localhost"
							],
							"port": "8080"
						}
					},
					"response": []
				},
				{
					"name": "Get a Book",
					"request": {
						"method": "GET",
						"header": [],
						"url": {
							"raw": "localhost:8080/api/tutorials/:id",
							"host": [
								"localhost"
							],
							"port": "8080",
							"path": [
                                "api",
                                "tutorials",
								":id"
							],
							"variable": [
								{
									"key": "id",
									"value": "1"
								}
							]
						}
					},
					"response": []
				},
				{
					"name": "Delete a Book",
					"request": {
						"method": "DELETE",
						"header": [],
						"url": {
							"raw": "localhost:8080/api/tutorials/:id",
							"host": [
								"localhost"
							],
							"port": "8080",
							"path": [
                                "api",
                                "tutorials",
								":id"
							],
							"variable": [
								{
									"key": "id",
									"value": "8"
								}
							]
						}
					},
					"response": []
				},
				{
					"name": "Delete All Books",
					"request": {
						"method": "DELETE",
						"header": [],
						"url": {
							"raw": "localhost:8080/api/tutorials",
							"host": [
								"localhost"
							],
							"port": "8080",
							"path": [
                                "api",
                                "tutorials"
							]
						}
					},
					"response": []
				},
				{
					"name": "Get All Books",
					"request": {
						"method": "GET",
						"header": [],
						"url": {
							"raw": "localhost:8080/api/tutorials",
							"host": [
								"localhost"
							],
							"port": "8080",
                            "path": [
                                "api",
                                "tutorials"
							]
						}
					},
					"response": []
				},
				{
					"name": "Get All Published Books",
					"request": {
						"method": "GET",
						"header": [],
						"url": {
							"raw": "localhost:8080/api/tutorials/published",
							"host": [
								"localhost"
							],
							"port": "8080",
                            "path": [
                                "api",
                                "tutorials",
								"published"
							]
						}
					},
					"response": []
				},
				{
					"name": "Create Book",
					"request": {
						"method": "POST",
						"header": [],
						"body": {
							"mode": "raw",
							"raw": "{\n    \"title\": \"This is a title\",\n    \"description\": \"An example of Description\",\n }",
							"options": {
								"raw": {
									"language": "json"
								}
							}
						},
						"url": {
							"raw": "localhost:8080/api/tutorials",
							"host": [
								"localhost"
							],
							"port": "8080",
                            "path": [
                                "api",
                                "tutorials"
							]
						}
					},
					"response": []
				},
				{
					"name": "Update Book",
					"request": {
						"method": "PUT",
						"header": [],
						"body": {
							"mode": "raw",
							"raw": "{\n    \"title\": \"This is a title\",\n    \"description\": \"An example of Description\",\n    \"published\": \"true\"\n}",
							"options": {
								"raw": {
									"language": "json"
								}
							}
						},
						"url": {
							"raw": "localhost:8080/api/tutorials/:id",
							"host": [
								"localhost"
							],
							"port": "8080",
							"path": [
                                "api",
                                "tutorials",
								":id"
							],
							"variable": [
								{
									"key": "id",
									"value": null
								}
							]
						}
					},
					"response": []
				}
			]
		}
	]
}